FK,KD_JENIS_TRANSAKSI,FG_PENGGANTI,NOMOR_FAKTUR,MASA_PAJAK,TAHUN_PAJAK,TANGGAL_FAKTUR,NPWP,NAMA,ALAMAT_LENGKAP,JUMLAH_DPP,JUMLAH_PPN,JUMLAH_PPNBM,ID_KETERANGAN_TAMBAHAN,FG_UANG_MUKA,UANG_MUKA_DPP,UANG_MUKA_PPN,UANG_MUKA_PPNBM,REFERENSI,KODE_DOKUMEN_PENDUKUNG
LT,NPWP,NAMA,JALAN,BLOK,NOMOR,RT,RW,KECAMATAN,KELURAHAN,KABUPATEN,PROPINSI,KODE_POS,NOMOR_TELEPON,,,,,,
OF,KODE_OBJEK,NAMA,HARGA_SATUAN,JUMLAH_BARANG,HARGA_TOTAL,DISKON,DPP,PPN,TARIF_PPNBM,PPNBM,,,,,,,,,
FK,04,0,0082312345678,07,2023,27/06/2023,73.941.756.6.712.000,"SURYA JAYA CARGO","MT.HARYONO BLOK NO 8C RT:14 RW:005 KEL. METAWA BARU HULU KEC MENTAWA BARU",56953,6265,0,,0,0,0,0,ORDER/12/12,
FAPR,"Web Demo","JL. Jalan",,,,,,,,,,,,,,,,,
OF,990-90909,IND-THAI,18984,3.0,56953,0,56953,6265,0,0,0,0,,,,,,,
